{
  "project_info": {
    "project_number": "39947242155",
    "firebase_url": "https://onair-airline-manager.firebaseio.com",
    "project_id": "onair-airline-manager",
    "storage_bucket": "onair-airline-manager.appspot.com"
  },
  "client": [
    {
      "client_info": {
        "mobilesdk_app_id": "1:39947242155:android:bd08c9d108bb9262a985ee",
        "android_client_info": {
          "package_name": "com.onair.company"
        }
      },
      "oauth_client": [
        {
          "client_id": "39947242155-219fm321lidj9v1nffj0o310mai1pqdf.apps.googleusercontent.com",
          "client_type": 3
        }
      ],
      "api_key": [
        {
          "current_key": "AIzaSyDSjuUmn2IRAwiClwnmGgorR0xp4mD_SL4"
        }
      ],
      "services": {
        "appinvite_service": {
          "other_platform_oauth_client": [
            {
              "client_id": "39947242155-219fm321lidj9v1nffj0o310mai1pqdf.apps.googleusercontent.com",
              "client_type": 3
            }
          ]
        }
      }
    }
  ],
  "configuration_version": "1"
}